<svg width="80" height="80" viewBox="0 0 80 80" fill="none" xmlns="http://www.w3.org/2000/svg">
<path d="M72.2406 79.9374C67.5247 78.4047 63.0443 76.0466 58.564 74.0421C57.9745 73.8063 57.9745 72.8631 58.3282 72.5094C60.4504 70.5053 62.5727 68.2652 65.1665 66.968V66.8501C66.2276 52.4662 53.9657 38.5538 45.0053 28.6501C34.7479 17.2136 22.2503 6.83829 7.27675 2.71173C5.39033 2.47593 3.386 2.24013 1.38167 2.24013C0.438452 2.24013 0.438452 0.943212 1.38167 0.82531C1.73537 0.82531 2.08908 0.82531 2.44278 0.82531C2.44278 0.353704 2.79649 0 3.386 0C4.68291 0.117901 5.97983 0.471606 7.27675 0.707409C39.2281 1.65062 70.0005 33.484 72.0048 64.61C73.8912 63.5489 75.8954 62.6059 77.782 61.4269C78.6071 60.8372 79.4324 61.7806 79.3145 62.6059C78.4894 68.501 75.6596 73.8065 73.5375 79.23C73.4196 79.7014 72.948 80.173 72.2406 79.9374ZM76.9567 64.1384C75.424 64.846 73.8912 65.3174 72.3585 66.1427C71.7688 66.3787 71.2974 66.0248 71.1795 65.6711C70.8258 65.6711 70.5898 65.4353 70.4721 65.0816C65.756 36.9032 46.538 14.0303 20.4816 5.54137C30.739 11.0827 39.6995 19.5716 47.2453 27.9427C52.7868 34.0735 57.7385 40.5581 61.8651 47.6322C65.0484 53.1736 67.996 60.1298 65.9918 66.4964C66.935 66.1427 67.4066 67.5575 66.6992 68.0292C64.6949 69.5619 62.8085 71.0946 61.04 72.7452C64.6949 74.3956 68.3497 76.1644 72.1225 77.4611C73.7733 73.0989 75.8956 68.7366 76.9567 64.1384Z" fill="black"/>
</svg>
