<svg width="27" height="15" viewBox="0 0 27 15" fill="none" xmlns="http://www.w3.org/2000/svg">
<path d="M25.834 0.833203C25.9511 0.950333 26.0097 1.0089 26.0519 1.06494C26.32 1.42109 26.32 1.91172 26.0519 2.26788C26.0097 2.32391 25.9511 2.38248 25.834 2.49961L14.4791 13.8545C14.0697 14.2639 13.865 14.4685 13.6276 14.5416C13.436 14.6005 13.2311 14.6005 13.0395 14.5416C12.8021 14.4685 12.5974 14.2639 12.1881 13.8545L0.833189 2.49961C0.716061 2.38248 0.657495 2.32391 0.615307 2.26788C0.347166 1.91172 0.347166 1.42109 0.615307 1.06494C0.657495 1.0089 0.716061 0.950334 0.833189 0.833204C0.950317 0.716075 1.00888 0.65751 1.06492 0.615321C1.42107 0.347179 1.91171 0.347179 2.26786 0.61532C2.3239 0.657509 2.38247 0.716074 2.49959 0.833203L12.1881 10.5217C12.5974 10.931 12.8021 11.1357 13.0395 11.2088C13.2311 11.2677 13.436 11.2677 13.6276 11.2088C13.865 11.1357 14.0697 10.931 14.4791 10.5217L24.1676 0.833203C24.2847 0.716073 24.3433 0.657508 24.3993 0.615319C24.7555 0.347179 25.2461 0.347179 25.6022 0.615319C25.6583 0.657508 25.7168 0.716073 25.834 0.833203Z" fill="#23243B"/>
</svg>
