<svg width="105" height="25" viewBox="0 0 105 25" fill="none" xmlns="http://www.w3.org/2000/svg">
<rect x="63.7952" y="14.0649" width="40.0942" height="10.9348" fill="#FF6266"/>
<path d="M4.09787 20.9031C2.72746 20.9031 1.72191 20.5294 1.0812 19.7819C0.360399 18.803 0 17.842 0 16.8987C0 15.733 0.28031 14.6963 0.840931 13.7886C0.974412 13.5661 1.15684 13.4549 1.3882 13.4549C1.51279 13.4549 1.63737 13.4905 1.76195 13.5617C1.94882 13.7041 2.04226 13.8776 2.04226 14.0823C2.04226 14.189 2.01556 14.2958 1.96217 14.4026C1.65961 14.9009 1.44604 15.5728 1.32146 16.4182C1.30367 16.5517 1.29477 16.6896 1.29477 16.832C1.29477 17.535 1.55728 18.2513 2.0823 18.981C2.42046 19.3548 2.99443 19.5639 3.80421 19.6084V19.5817L3.89765 19.6084H4.19131L4.25805 19.595C4.64069 19.595 4.9655 19.337 5.23246 18.8208C5.42823 18.3759 5.52612 17.9221 5.52612 17.4593C5.52612 16.4538 5.07673 15.3993 4.17796 14.2958L3.69743 13.7219C2.91434 12.8854 2.109 11.8042 1.28142 10.4783C0.462734 9.15235 0.0533924 7.64847 0.0533924 5.9666V5.91321C0.186874 4.11567 0.969962 2.78531 2.40266 1.92213C3.12346 1.53948 3.85315 1.34816 4.59175 1.34816C5.34814 1.34816 6.11343 1.54838 6.88762 1.94882L6.87428 1.98887C6.95436 2.04226 7.03 2.10455 7.10119 2.17574C7.83089 2.85205 8.19574 3.81311 8.19574 5.05893C8.19574 5.93991 7.95992 6.84313 7.48829 7.7686C7.35481 7.98217 7.16793 8.08895 6.92767 8.08895C6.80309 8.08895 6.6785 8.04891 6.55392 7.96882C6.37595 7.83534 6.28696 7.66626 6.28696 7.46159C6.28696 7.35481 6.31365 7.24802 6.36705 7.14124C6.74079 6.40264 6.92767 5.71299 6.92767 5.07228C6.92767 4.9566 6.90542 4.68519 6.86093 4.25805C6.81643 3.83091 6.61176 3.45271 6.24691 3.12346C6.03334 2.94548 5.81088 2.8565 5.57951 2.8565C5.21466 2.8565 4.83646 3.04337 4.44492 3.41712C3.94659 3.87095 3.69743 4.50721 3.69743 5.3259C3.69743 5.75303 3.76862 6.16683 3.911 6.56727C4.48051 8.00887 5.3081 9.46826 6.39374 10.9454C6.90097 11.6751 7.43045 12.4716 7.98217 13.3348C8.60508 14.3759 8.91654 15.3859 8.91654 16.3648C8.91654 17.2725 8.64512 18.1534 8.1023 19.0077C7.68406 19.595 7.15014 20.0355 6.50053 20.3292C5.85092 20.6228 5.20131 20.7964 4.5517 20.8497C4.40043 20.8853 4.24915 20.9031 4.09787 20.9031Z" fill="#23243B"/>
<path d="M11.3058 20.6896C11.1279 20.6807 10.9766 20.6184 10.852 20.5027C10.7274 20.387 10.6607 20.2402 10.6518 20.0622C10.6518 19.8753 10.7096 19.7241 10.8253 19.6084C10.9499 19.4838 11.1012 19.417 11.2792 19.4081L12.0133 19.3815C12.0044 16.3114 11.9688 12.9165 11.9065 9.19685C11.862 6.54502 11.8353 4.59175 11.8264 3.33703C11.8264 3.14125 11.8442 2.95883 11.8798 2.78975L11.3459 2.81645C11.1679 2.81645 11.0122 2.75861 10.8787 2.64293C10.7541 2.51834 10.6918 2.35372 10.6918 2.14905C10.6918 1.98887 10.7452 1.85094 10.852 1.73525C10.9677 1.61067 11.119 1.54393 11.3058 1.53503L13.1746 1.46829C13.3793 1.4327 13.5839 1.4149 13.7886 1.4149L14.0022 1.42825L17.0055 1.32146C17.1835 1.32146 17.3347 1.38375 17.4593 1.50834C17.5928 1.62402 17.6595 1.7842 17.6595 1.98887C17.6595 2.14905 17.6017 2.29143 17.486 2.41601C17.3792 2.53169 17.2324 2.59398 17.0455 2.60288L15.6039 2.65627C15.6484 2.78975 15.6707 2.92769 15.6707 3.07007L15.6573 3.21689C15.6039 4.09787 15.5772 5.85537 15.5772 8.4894L15.5906 13.3348C15.5906 15.6395 15.5594 17.6195 15.4972 19.2747V19.3147L16.218 19.3014C16.3959 19.3014 16.5472 19.3592 16.6718 19.4749C16.7964 19.5906 16.8631 19.7419 16.872 19.9287C16.872 20.1067 16.8097 20.258 16.6851 20.3826C16.5695 20.5071 16.4226 20.5739 16.2446 20.5828L14.7363 20.6095C14.6028 20.654 14.2291 20.6762 13.6151 20.6762C13.3837 20.6762 13.228 20.6673 13.1479 20.6495L11.3058 20.6896Z" fill="#23243B"/>
<path d="M32.4759 20.6228H31.9153C31.4526 20.6228 31.0521 20.4982 30.714 20.2491C30.3847 19.9999 30.2201 19.6974 30.2201 19.3414C30.1934 14.5628 30.14 10.1579 30.0599 6.12678L26.3225 15.5505C26.2869 15.6662 26.1845 15.7953 26.0155 15.9376C25.8553 16.08 25.5839 16.1512 25.2012 16.1512C24.516 16.1512 24.0844 15.9287 23.9065 15.4838L20.6896 6.48718L20.7029 19.555C20.694 19.7241 20.6317 19.8664 20.516 19.9821C20.4093 20.0889 20.2713 20.1467 20.1022 20.1556C19.8798 20.1556 19.7107 20.0978 19.595 19.9821C19.4793 19.8664 19.4215 19.7241 19.4215 19.555L19.4081 2.72301C19.417 2.31367 19.555 1.97107 19.8219 1.69521C20.0622 1.46384 20.3336 1.34816 20.6362 1.34816H21.6106C22.1445 1.34816 22.545 1.65517 22.8119 2.26918L26.3759 11.9466L30.14 2.4961C30.2112 2.19354 30.3447 1.94882 30.5405 1.76195C30.8163 1.47719 31.1945 1.33481 31.6751 1.33481L31.942 1.32146C32.5471 1.32146 33.001 1.49499 33.3035 1.84204C33.615 2.16239 33.7707 2.54504 33.7707 2.98998V3.12346C33.6906 4.18241 33.6506 5.93101 33.6506 8.36926L33.6773 14.4827C33.6773 16.2535 33.655 17.8153 33.6105 19.1679C33.5393 20.0311 33.1611 20.516 32.4759 20.6228Z" fill="#23243B"/>
<path d="M37.9754 20.783H37.4014C36.9298 20.783 36.5249 20.6584 36.1867 20.4093C35.8486 20.1512 35.6795 19.8442 35.6795 19.4882C35.6706 16.4449 35.635 13.0545 35.5727 9.31698V9.14345C35.5282 6.35815 35.506 4.39153 35.506 3.24359C35.506 2.58508 35.675 2.0912 36.0132 1.76195C36.2891 1.47719 36.6717 1.33481 37.1611 1.33481L37.4281 1.32146C37.7484 1.32146 38.0243 1.37486 38.2557 1.48164C38.7184 1.67741 39.0299 1.99332 39.19 2.42936C39.8752 1.74415 40.6583 1.40155 41.5393 1.40155C42.4381 1.40155 43.2835 1.81979 44.0755 2.65627C45.081 3.8932 45.5838 5.42378 45.5838 7.24802C45.5838 7.47049 45.5437 8.17794 45.4637 9.37037C45.3925 10.5539 44.8407 11.8976 43.8085 13.4015C42.8118 14.7007 41.5037 15.3503 39.8841 15.3503C39.6261 15.3503 39.3992 15.337 39.2034 15.3103C39.1945 16.8943 39.1678 18.2291 39.1233 19.3147C39.0521 20.1779 38.6695 20.6673 37.9754 20.783ZM39.2034 13.9755C39.6305 13.931 40.2001 13.4949 40.9119 12.6674C41.3658 12.0444 41.7217 11.1056 41.9798 9.8509C42.2023 8.75636 42.3135 7.65736 42.3135 6.55392C42.3135 6.40264 42.3046 5.9755 42.2868 5.2725C42.269 4.5695 42.0465 3.8932 41.6194 3.24359C41.4503 2.99443 41.2323 2.86984 40.9653 2.86984C40.8497 2.86984 40.7251 2.89209 40.5916 2.93658C40.2001 3.17685 39.8752 3.51945 39.6172 3.96439C39.368 4.40043 39.2301 4.87206 39.2034 5.37929C39.1945 6.16238 39.19 7.01221 39.19 7.92878L39.2034 10.8787V13.9755Z" fill="#23243B"/>
<path d="M50.2289 20.6228H49.5482C48.9787 20.6228 48.507 20.5027 48.1333 20.2624C47.7595 20.0222 47.5638 19.7152 47.546 19.3414C47.546 16.5383 47.5015 13.1256 47.4125 9.10341C47.3591 6.3359 47.3324 4.37818 47.3324 3.23024C47.3324 2.62513 47.497 2.15794 47.8263 1.82869C48.1555 1.49944 48.6272 1.33481 49.2412 1.33481L49.5615 1.32146C50.3535 1.32146 50.9364 1.53058 51.3101 1.94882C51.5949 2.26028 51.7373 2.61178 51.7373 3.00332V3.13681C51.6661 3.94659 51.6305 5.69964 51.6305 8.39596V10.812L51.6438 13.0545C51.6438 15.4304 51.6082 17.4682 51.537 19.1679L57.4903 18.7808C57.6505 18.7808 57.7973 18.8431 57.9308 18.9677C58.0643 19.0833 58.131 19.2346 58.131 19.4215C58.131 19.5906 58.0776 19.7374 57.9708 19.862C57.864 19.9777 57.7306 20.0444 57.5704 20.0622C57.4102 20.0711 55.9686 20.1823 53.2456 20.3959L50.2289 20.6228Z" fill="#23243B"/>
<path d="M62.2823 5.73969C62.1221 5.73969 61.9664 5.71299 61.8151 5.6596C61.2812 5.54391 61.0142 5.23691 61.0142 4.73858C61.0142 4.64959 61.2367 4.11567 61.6816 3.13681C61.3613 2.79865 61.2011 2.42046 61.2011 2.00222C61.2011 1.4327 61.5793 0.903222 62.3357 0.413791C62.7717 0.13793 63.2033 0 63.6304 0C64.2978 0 64.8051 0.226918 65.1521 0.680754C65.339 0.938817 65.4324 1.22358 65.4324 1.53503C65.4324 2.20244 65.0542 3.02112 64.2978 3.99108C63.844 4.5695 63.4347 5.04114 63.0698 5.40598C62.8918 5.62845 62.6293 5.73969 62.2823 5.73969Z" fill="#23243B"/>
<path d="M76.1376 20.7697H69.0231V20.7296H68.5158C68.0264 20.7207 67.6126 20.5961 67.2745 20.3559C66.9363 20.1067 66.7672 19.8041 66.7672 19.4482C66.7583 16.3692 66.7227 12.9521 66.6604 9.19685V9.07671C66.616 6.47828 66.5893 4.56505 66.5804 3.33703C66.5804 2.67852 66.745 2.19354 67.0742 1.88208C67.4035 1.57063 67.8929 1.4149 68.5425 1.4149L68.7561 1.42825H76.0709C76.2577 1.43715 76.409 1.50389 76.5247 1.62847C76.6493 1.74415 76.7116 1.89098 76.7116 2.06896C76.7027 2.25583 76.6359 2.40711 76.5114 2.52279C76.3957 2.63848 76.2488 2.69632 76.0709 2.69632L70.3579 2.64293C70.4024 2.8031 70.4246 2.96773 70.4246 3.13681V3.21689C70.3534 4.31144 70.3178 5.96215 70.3178 8.16904L70.3312 10.3047H73.9085C74.0864 10.3047 74.2377 10.367 74.3623 10.4916C74.4869 10.6162 74.5492 10.763 74.5492 10.9321C74.5492 11.119 74.4869 11.2747 74.3623 11.3993C74.2377 11.5239 74.0864 11.5862 73.9085 11.5862H70.3312L70.3445 13.8153C70.3445 15.9421 70.3134 17.7619 70.2511 19.2747L70.2377 19.4882H76.1376C76.3067 19.4882 76.4535 19.5505 76.5781 19.6751C76.7027 19.7997 76.765 19.951 76.765 20.1289C76.765 20.3069 76.7027 20.4582 76.5781 20.5828C76.4535 20.7074 76.3067 20.7697 76.1376 20.7697Z" fill="#23243B"/>
<path d="M88.6047 20.7563L88.0308 20.743C87.6214 20.7252 87.2877 20.5828 87.0297 20.3158C86.8072 20.0756 86.696 19.7908 86.696 19.4615L86.7093 18.3403C86.7093 16.7919 86.607 14.9899 86.4023 12.9343L80.5024 13.1879C80.1465 15.6707 79.9107 17.7619 79.795 19.4615C79.7772 19.6395 79.706 19.7863 79.5814 19.902C79.4568 20.0088 79.3011 20.0622 79.1142 20.0622C78.9363 20.0444 78.7894 19.9732 78.6737 19.8486C78.567 19.7152 78.5136 19.555 78.5136 19.3681C78.5759 18.327 78.7316 16.7474 78.9808 14.6295C79.2388 12.5027 79.6304 10.3359 80.1554 8.129C80.6804 5.91321 81.3745 4.15571 82.2377 2.8565L82.2243 2.84315L82.3178 2.76306C82.9496 1.89988 83.6793 1.46829 84.5069 1.46829C84.756 1.46829 85.0141 1.51279 85.2811 1.60177C87.3545 2.43825 88.7738 5.38819 89.5391 10.4516C90.0107 13.5928 90.2466 16.4894 90.2466 19.1412V19.3014C90.2466 19.6484 90.1131 19.9599 89.8461 20.2357C89.4546 20.5828 89.0408 20.7563 88.6047 20.7563ZM80.7027 11.8932L86.2555 11.6529C86.0063 9.57949 85.6726 7.75525 85.2544 6.18017C84.845 4.6051 84.3778 3.67073 83.8528 3.37707C83.8261 3.36817 83.795 3.36372 83.7594 3.36372C83.6081 3.36372 83.4212 3.47051 83.1988 3.68408C82.1754 5.22356 81.3434 7.95992 80.7027 11.8932Z" fill="#23243B"/>
<path d="M99.0163 20.7296H98.4289C97.9395 20.7207 97.5257 20.5961 97.1876 20.3559C96.8494 20.1067 96.6803 19.8041 96.6803 19.4482C96.6714 16.3692 96.6358 12.9521 96.5736 9.19685C96.5558 8.32477 96.5469 7.38595 96.5469 6.3804C96.5469 3.98663 96.5736 2.68297 96.627 2.4694C94.8561 2.62068 93.5613 2.78531 92.7427 2.96328L92.6225 2.97663C92.3022 2.97663 92.0975 2.812 92.0085 2.48275L91.9952 2.32257C91.9952 2.19799 92.0352 2.07341 92.1153 1.94882C92.3378 1.60177 94.1264 1.32591 97.4812 1.12124C97.8995 1.09454 98.3177 1.0812 98.736 1.0812C100.622 1.0812 102.54 1.34371 104.489 1.86874C104.667 1.93103 104.796 2.04226 104.876 2.20244C104.921 2.29143 104.943 2.38041 104.943 2.4694C104.943 2.54949 104.929 2.62958 104.903 2.70967C104.796 2.98553 104.605 3.12346 104.329 3.12346C104.267 3.12346 104.2 3.11456 104.129 3.09676C102.856 2.72301 101.544 2.505 100.191 2.4427C100.226 2.56729 100.249 3.11011 100.258 4.07117L100.244 7.46159L100.258 13.3214C100.258 15.6351 100.226 17.6195 100.164 19.2747C100.093 20.1289 99.7104 20.6139 99.0163 20.7296Z" fill="#23243B"/>
</svg>
